{
	"info": {
		"_postman_id": "e6cf75ce-a4d3-4209-9bd6-0c07c1e88ad9",
		"name": "BroadPayments",
		"schema": "https://schema.getpostman.com/json/collection/v2.1.0/collection.json"
	},
	"item": [
		{
			"name": "nowy użytkownik",
			"event": [
				{
					"listen": "test",
					"script": {
						"exec": [
							"pm.test(\"Czy poprawny kod\", function () {\r",
							"    pm.response.to.have.status(201);\r",
							"});\r",
							"\r",
							"pm.collectionVariables.set(\"username1\", pm.response.json().username);\r",
							"pm.collectionVariables.set(\"Code1\", pm.response.json().confirmationCode);\r",
							"pm.collectionVariables.set(\"firstname1\", pm.response.json().firstName);\r",
							"pm.collectionVariables.set(\"lastname1\", pm.response.json().lastName);\r",
							"pm.collectionVariables.set(\"email1\", pm.response.json().email);"
						],
						"type": "text/javascript"
					}
				}
			],
			"request": {
				"auth": {
					"type": "noauth"
				},
				"method": "POST",
				"header": [],
				"body": {
					"mode": "raw",
					"raw": "{\r\n  \"username\": \"{{$randomUserName}}\",\r\n  \"password\": \"{{hasloDlaFlow1}}\",\r\n  \"firstName\": \"{{$randomFirstName}}\",\r\n  \"lastName\": \"{{$randomLastName}}\",\r\n  \"pesel\": \"98147849154\",\r\n  \"email\": \"{{$randomEmail}}\"\r\n}\r\n\r\n",
					"options": {
						"raw": {
							"language": "json"
						}
					}
				},
				"url": {
					"raw": "{{baseURL}}/public/user/register",
					"host": [
						"{{baseURL}}"
					],
					"path": [
						"public",
						"user",
						"register"
					]
				}
			},
			"response": []
		},
		{
			"name": "2 nowy użytkownik",
			"event": [
				{
					"listen": "test",
					"script": {
						"exec": [
							"pm.test(\"Czy poprawny kod\", function () {\r",
							"    pm.response.to.have.status(201);\r",
							"});\r",
							"pm.collectionVariables.set(\"username2\", pm.response.json().username);\r",
							"pm.collectionVariables.set(\"Code2\", pm.response.json().confirmationCode);\r",
							"pm.collectionVariables.set(\"firstname2\", pm.response.json().firstName);\r",
							"pm.collectionVariables.set(\"lastname2\", pm.response.json().lastName);\r",
							"pm.collectionVariables.set(\"email2\", pm.response.json().email);"
						],
						"type": "text/javascript"
					}
				}
			],
			"request": {
				"auth": {
					"type": "noauth"
				},
				"method": "POST",
				"header": [],
				"body": {
					"mode": "raw",
					"raw": "{\r\n  \"username\": \"{{$randomUserName}}\",\r\n  \"password\": \"{{hasloDlaFlow2}}\",\r\n  \"firstName\": \"{{$randomFirstName}}\",\r\n  \"lastName\": \"{{$randomLastName}}\",\r\n  \"pesel\": \"86745987452\",\r\n  \"email\": \"{{$randomEmail}}\"\r\n}\r\n\r\n",
					"options": {
						"raw": {
							"language": "json"
						}
					}
				},
				"url": {
					"raw": "{{baseURL}}/public/user/register",
					"host": [
						"{{baseURL}}"
					],
					"path": [
						"public",
						"user",
						"register"
					]
				}
			},
			"response": []
		},
		{
			"name": "potwierdzenie rejestracji",
			"event": [
				{
					"listen": "test",
					"script": {
						"exec": [
							"pm.test(\"Czy poprawny kod\", function () {\r",
							"    pm.response.to.have.status(200);\r",
							"});\r",
							"pm.test(\"Czy id jest null\", function () {\r",
							"    pm.expect(\"id\").to.be.not.null;\r",
							"});\r",
							""
						],
						"type": "text/javascript"
					}
				}
			],
			"request": {
				"auth": {
					"type": "basic",
					"basic": [
						{
							"key": "password",
							"value": "{{hasloadmin}}",
							"type": "string"
						},
						{
							"key": "username",
							"value": "{{loginadmin}}",
							"type": "string"
						}
					]
				},
				"method": "POST",
				"header": [],
				"body": {
					"mode": "raw",
					"raw": "",
					"options": {
						"raw": {
							"language": "json"
						}
					}
				},
				"url": {
					"raw": "{{baseURL}}/public/user/confirm/{{Code1}}",
					"host": [
						"{{baseURL}}"
					],
					"path": [
						"public",
						"user",
						"confirm",
						"{{Code1}}"
					]
				}
			},
			"response": []
		},
		{
			"name": "pobieranie danych uzytkownika",
			"event": [
				{
					"listen": "test",
					"script": {
						"exec": [
							"pm.test(\"Czy poprawny kod\", function () {\r",
							"    pm.response.to.have.status(200);\r",
							"});\r",
							"\r",
							"var firstname = pm.collectionVariables.get(\"firstname1\");\r",
							"var lastname = pm.collectionVariables.get(\"lastname1\");\r",
							"var username = pm.collectionVariables.get(\"username1\");\r",
							"var email = pm.collectionVariables.get(\"email1\");\r",
							"\r",
							"pm.test(\"Czy jest poprawne\", function () {\r",
							"    pm.expect(pm.response.json().firstName).to.be.eq(firstname);\r",
							"    pm.expect(pm.response.json().lastName).to.be.eq(lastname);\r",
							"    pm.expect(pm.response.json().username).to.be.eq(username);\r",
							"    pm.expect(pm.response.json().email).to.be.eq(email);\r",
							"});\r",
							""
						],
						"type": "text/javascript"
					}
				}
			],
			"protocolProfileBehavior": {
				"disableBodyPruning": true
			},
			"request": {
				"auth": {
					"type": "basic",
					"basic": [
						{
							"key": "password",
							"value": "{{hasloDlaFlow1}}",
							"type": "string"
						},
						{
							"key": "username",
							"value": "{{username1}}",
							"type": "string"
						}
					]
				},
				"method": "GET",
				"header": [],
				"body": {
					"mode": "raw",
					"raw": "",
					"options": {
						"raw": {
							"language": "json"
						}
					}
				},
				"url": {
					"raw": "{{baseURL}}/user/profile",
					"host": [
						"{{baseURL}}"
					],
					"path": [
						"user",
						"profile"
					]
				}
			},
			"response": []
		},
		{
			"name": "2 potwierdzenie rejestracji",
			"event": [
				{
					"listen": "test",
					"script": {
						"exec": [
							"pm.test(\"Czy poprawny kod\", function () {\r",
							"    pm.response.to.have.status(200);\r",
							"    pm.expect(\"id\").to.be.not.null;\r",
							"});\r",
							""
						],
						"type": "text/javascript"
					}
				}
			],
			"request": {
				"auth": {
					"type": "basic",
					"basic": [
						{
							"key": "password",
							"value": "{{hasloadmin}}",
							"type": "string"
						},
						{
							"key": "username",
							"value": "{{loginadmin}}",
							"type": "string"
						}
					]
				},
				"method": "POST",
				"header": [],
				"body": {
					"mode": "raw",
					"raw": "{\r\n  \"username\": \"jan11\",\r\n  \"password\": \"jan11\",\r\n  \"firstName\": \"Jan\",\r\n  \"lastName\": \"Kowalski\",\r\n  \"pesel\": \"98147849154\",\r\n  \"email\": \"{{$randomEmail}}\"\r\n}\r\n\r\n",
					"options": {
						"raw": {
							"language": "json"
						}
					}
				},
				"url": {
					"raw": "{{baseURL}}/public/user/confirm/{{Code2}}",
					"host": [
						"{{baseURL}}"
					],
					"path": [
						"public",
						"user",
						"confirm",
						"{{Code2}}"
					]
				}
			},
			"response": []
		},
		{
			"name": "2 pobieranie danych uzytkownika",
			"event": [
				{
					"listen": "test",
					"script": {
						"exec": [
							"pm.test(\"Czy poprawny kod\", function () {\r",
							"    pm.response.to.have.status(200);\r",
							"});\r",
							"\r",
							"var firstname = pm.collectionVariables.get(\"firstname2\");\r",
							"var lastname = pm.collectionVariables.get(\"lastname2\");\r",
							"var username = pm.collectionVariables.get(\"username2\");\r",
							"var email = pm.collectionVariables.get(\"email2\");\r",
							"\r",
							"pm.test(\"Czy jest poprawne\", function () {\r",
							"    pm.expect(pm.response.json().firstName).to.be.eq(firstname);\r",
							"    pm.expect(pm.response.json().lastName).to.be.eq(lastname);\r",
							"    pm.expect(pm.response.json().username).to.be.eq(username);\r",
							"    pm.expect(pm.response.json().email).to.be.eq(email);\r",
							"});\r",
							""
						],
						"type": "text/javascript"
					}
				}
			],
			"protocolProfileBehavior": {
				"disableBodyPruning": true
			},
			"request": {
				"auth": {
					"type": "basic",
					"basic": [
						{
							"key": "password",
							"value": "{{hasloDlaFlow2}}",
							"type": "string"
						},
						{
							"key": "username",
							"value": "{{username2}}",
							"type": "string"
						}
					]
				},
				"method": "GET",
				"header": [],
				"body": {
					"mode": "raw",
					"raw": "",
					"options": {
						"raw": {
							"language": "json"
						}
					}
				},
				"url": {
					"raw": "{{baseURL}}/user/profile",
					"host": [
						"{{baseURL}}"
					],
					"path": [
						"user",
						"profile"
					]
				}
			},
			"response": []
		},
		{
			"name": "otwarcie konta",
			"event": [
				{
					"listen": "test",
					"script": {
						"exec": [
							"pm.test(\"Czy poprawny kod\", function () {\r",
							"    pm.response.to.have.status(201);\r",
							"});\r",
							""
						],
						"type": "text/javascript"
					}
				}
			],
			"request": {
				"auth": {
					"type": "basic",
					"basic": [
						{
							"key": "password",
							"value": "{{hasloDlaFlow1}}",
							"type": "string"
						},
						{
							"key": "username",
							"value": "{{username1}}",
							"type": "string"
						}
					]
				},
				"method": "POST",
				"header": [],
				"body": {
					"mode": "raw",
					"raw": "",
					"options": {
						"raw": {
							"language": "json"
						}
					}
				},
				"url": {
					"raw": "{{baseURL}}/user/account/open/USD",
					"host": [
						"{{baseURL}}"
					],
					"path": [
						"user",
						"account",
						"open",
						"USD"
					]
				}
			},
			"response": []
		},
		{
			"name": "pobieranie danych konta",
			"event": [
				{
					"listen": "test",
					"script": {
						"exec": [
							"pm.test(\"Czy poprawny kod\", function () {\r",
							"    pm.response.to.have.status(200);\r",
							"});\r",
							"\r",
							"\r",
							"\r",
							"pm.test(\"Czy jest poprawne\", function () {\r",
							"    pm.expect(pm.response.json().currency).to.be.eq(\"USD\");\r",
							"    pm.expect(pm.response.json().status).to.be.eq(\"ACTIVE\");\r",
							"   \r",
							"});\r",
							""
						],
						"type": "text/javascript"
					}
				}
			],
			"protocolProfileBehavior": {
				"disableBodyPruning": true
			},
			"request": {
				"auth": {
					"type": "basic",
					"basic": [
						{
							"key": "password",
							"value": "{{hasloDlaFlow1}}",
							"type": "string"
						},
						{
							"key": "username",
							"value": "{{username1}}",
							"type": "string"
						}
					]
				},
				"method": "GET",
				"header": [],
				"body": {
					"mode": "raw",
					"raw": "",
					"options": {
						"raw": {
							"language": "json"
						}
					}
				},
				"url": {
					"raw": "{{baseURL}}/user/account",
					"host": [
						"{{baseURL}}"
					],
					"path": [
						"user",
						"account"
					]
				}
			},
			"response": []
		},
		{
			"name": "2 otwarcie konta",
			"event": [
				{
					"listen": "test",
					"script": {
						"exec": [
							"pm.test(\"Czy poprawny kod\", function () {\r",
							"    pm.response.to.have.status(201);\r",
							"});\r",
							""
						],
						"type": "text/javascript"
					}
				}
			],
			"request": {
				"auth": {
					"type": "basic",
					"basic": [
						{
							"key": "password",
							"value": "{{hasloDlaFlow2}}",
							"type": "string"
						},
						{
							"key": "username",
							"value": "{{username2}}",
							"type": "string"
						}
					]
				},
				"method": "POST",
				"header": [],
				"body": {
					"mode": "raw",
					"raw": "",
					"options": {
						"raw": {
							"language": "json"
						}
					}
				},
				"url": {
					"raw": "{{baseURL}}/user/account/open/PLN",
					"host": [
						"{{baseURL}}"
					],
					"path": [
						"user",
						"account",
						"open",
						"PLN"
					]
				}
			},
			"response": []
		},
		{
			"name": "2 pobieranie danych konta",
			"event": [
				{
					"listen": "test",
					"script": {
						"exec": [
							"pm.test(\"Czy poprawny kod\", function () {\r",
							"    pm.response.to.have.status(200);\r",
							"});\r",
							"\r",
							"pm.test(\"Czy jest poprawne\", function () {\r",
							"    pm.expect(pm.response.json().currency).to.be.eq(\"PLN\");\r",
							"    pm.expect(pm.response.json().status).to.be.eq(\"ACTIVE\");\r",
							"   \r",
							"});\r",
							""
						],
						"type": "text/javascript"
					}
				}
			],
			"protocolProfileBehavior": {
				"disableBodyPruning": true
			},
			"request": {
				"auth": {
					"type": "basic",
					"basic": [
						{
							"key": "password",
							"value": "{{hasloDlaFlow2}}",
							"type": "string"
						},
						{
							"key": "username",
							"value": "{{username2}}",
							"type": "string"
						}
					]
				},
				"method": "GET",
				"header": [],
				"body": {
					"mode": "raw",
					"raw": "",
					"options": {
						"raw": {
							"language": "json"
						}
					}
				},
				"url": {
					"raw": "{{baseURL}}/user/account",
					"host": [
						"{{baseURL}}"
					],
					"path": [
						"user",
						"account"
					]
				}
			},
			"response": []
		},
		{
			"name": "przypisanie karty do konta",
			"event": [
				{
					"listen": "test",
					"script": {
						"exec": [
							"pm.test(\"Czy poprawny kod\", function () {\r",
							"    pm.response.to.have.status(200);\r",
							"});\r",
							""
						],
						"type": "text/javascript"
					}
				}
			],
			"request": {
				"auth": {
					"type": "basic",
					"basic": [
						{
							"key": "password",
							"value": "{{hasloDlaFlow1}}",
							"type": "string"
						},
						{
							"key": "username",
							"value": "{{username1}}",
							"type": "string"
						}
					]
				},
				"method": "POST",
				"header": [],
				"body": {
					"mode": "raw",
					"raw": "{\r\n  \"number\": \"1234123412341234\",\r\n  \"csc\": 333,\r\n  \"expirationDate\": \"2022-05-05\"\r\n}",
					"options": {
						"raw": {
							"language": "json"
						}
					}
				},
				"url": {
					"raw": "{{baseURL}}/user/account/card/set",
					"host": [
						"{{baseURL}}"
					],
					"path": [
						"user",
						"account",
						"card",
						"set"
					]
				}
			},
			"response": []
		},
		{
			"name": "pobieranie danych karty",
			"event": [
				{
					"listen": "test",
					"script": {
						"exec": [
							"pm.test(\"Czy poprawny kod\", function () {\r",
							"    pm.response.to.have.status(200);\r",
							"});\r",
							"pm.test(\"Czy jest poprawne\", function () {\r",
							"    pm.expect(pm.response.json().number).to.be.eq(\"1234123412341234\");\r",
							"    pm.expect(pm.response.json().csc).to.be.eq(333);\r",
							"    pm.expect(pm.response.json().expirationDate).to.be.eq(\"2022-05-05\");\r",
							"    pm.expect(pm.response.json().currency).to.be.eq(\"USD\");\r",
							"});\r",
							""
						],
						"type": "text/javascript"
					}
				}
			],
			"protocolProfileBehavior": {
				"disableBodyPruning": true
			},
			"request": {
				"auth": {
					"type": "basic",
					"basic": [
						{
							"key": "password",
							"value": "{{hasloDlaFlow1}}",
							"type": "string"
						},
						{
							"key": "username",
							"value": "{{username1}}",
							"type": "string"
						}
					]
				},
				"method": "GET",
				"header": [],
				"body": {
					"mode": "raw",
					"raw": "",
					"options": {
						"raw": {
							"language": "json"
						}
					}
				},
				"url": {
					"raw": "{{baseURL}}/user/account/card",
					"host": [
						"{{baseURL}}"
					],
					"path": [
						"user",
						"account",
						"card"
					]
				}
			},
			"response": []
		},
		{
			"name": "2 przypisanie kart do konta",
			"event": [
				{
					"listen": "test",
					"script": {
						"exec": [
							"pm.test(\"Czy poprawny kod\", function () {\r",
							"    pm.response.to.have.status(200);\r",
							"});\r",
							""
						],
						"type": "text/javascript"
					}
				}
			],
			"request": {
				"auth": {
					"type": "basic",
					"basic": [
						{
							"key": "password",
							"value": "{{hasloDlaFlow2}}",
							"type": "string"
						},
						{
							"key": "username",
							"value": "{{username2}}",
							"type": "string"
						}
					]
				},
				"method": "POST",
				"header": [],
				"body": {
					"mode": "raw",
					"raw": "{\r\n  \"number\": \"1234567887654321\",\r\n  \"csc\": 716,\r\n  \"expirationDate\": \"2020-12-01\"\r\n}",
					"options": {
						"raw": {
							"language": "json"
						}
					}
				},
				"url": {
					"raw": "{{baseURL}}/user/account/card/set",
					"host": [
						"{{baseURL}}"
					],
					"path": [
						"user",
						"account",
						"card",
						"set"
					]
				}
			},
			"response": []
		},
		{
			"name": "2 pobieranie danych karty",
			"event": [
				{
					"listen": "test",
					"script": {
						"exec": [
							"pm.test(\"Czy poprawny kod\", function () {\r",
							"    pm.response.to.have.status(200);\r",
							"});\r",
							"pm.test(\"Czy jest poprawne\", function () {\r",
							"    pm.expect(pm.response.json().number).to.be.eq(\"1234567887654321\");\r",
							"    pm.expect(pm.response.json().csc).to.be.eq(716);\r",
							"    pm.expect(pm.response.json().expirationDate).to.be.eq(\"2020-12-01\");\r",
							"    pm.expect(pm.response.json().currency).to.be.eq(\"PLN\");\r",
							"});\r",
							""
						],
						"type": "text/javascript"
					}
				}
			],
			"protocolProfileBehavior": {
				"disableBodyPruning": true
			},
			"request": {
				"auth": {
					"type": "basic",
					"basic": [
						{
							"key": "password",
							"value": "{{hasloDlaFlow2}}",
							"type": "string"
						},
						{
							"key": "username",
							"value": "{{username2}}",
							"type": "string"
						}
					]
				},
				"method": "GET",
				"header": [],
				"body": {
					"mode": "raw",
					"raw": "",
					"options": {
						"raw": {
							"language": "json"
						}
					}
				},
				"url": {
					"raw": "{{baseURL}}/user/account/card",
					"host": [
						"{{baseURL}}"
					],
					"path": [
						"user",
						"account",
						"card"
					]
				}
			},
			"response": []
		},
		{
			"name": "transfer środków z karty na konto",
			"event": [
				{
					"listen": "test",
					"script": {
						"exec": [
							"pm.test(\"Czy poprawny kod\", function () {\r",
							"    pm.response.to.have.status(200);\r",
							"});\r",
							""
						],
						"type": "text/javascript"
					}
				}
			],
			"request": {
				"auth": {
					"type": "basic",
					"basic": [
						{
							"key": "password",
							"value": "{{hasloDlaFlow1}}",
							"type": "string"
						},
						{
							"key": "username",
							"value": "{{username1}}",
							"type": "string"
						}
					]
				},
				"method": "POST",
				"header": [],
				"body": {
					"mode": "raw",
					"raw": "{\r\n  \"amount\": 4700,\r\n  \"csc\": 333\r\n}",
					"options": {
						"raw": {
							"language": "json"
						}
					}
				},
				"url": {
					"raw": "{{baseURL}}/user/account/credit",
					"host": [
						"{{baseURL}}"
					],
					"path": [
						"user",
						"account",
						"credit"
					]
				}
			},
			"response": []
		},
		{
			"name": "2 transfer środków z karty na konto",
			"event": [
				{
					"listen": "test",
					"script": {
						"exec": [
							"pm.test(\"Czy poprawny kod\", function () {\r",
							"    pm.response.to.have.status(200);\r",
							"});\r",
							""
						],
						"type": "text/javascript"
					}
				}
			],
			"request": {
				"auth": {
					"type": "basic",
					"basic": [
						{
							"key": "password",
							"value": "{{hasloDlaFlow2}}",
							"type": "string"
						},
						{
							"key": "username",
							"value": "{{username2}}",
							"type": "string"
						}
					]
				},
				"method": "POST",
				"header": [],
				"body": {
					"mode": "raw",
					"raw": "{\r\n  \"amount\": 580,\r\n  \"csc\": 716\r\n}",
					"options": {
						"raw": {
							"language": "json"
						}
					}
				},
				"url": {
					"raw": "{{baseURL}}/user/account/credit",
					"host": [
						"{{baseURL}}"
					],
					"path": [
						"user",
						"account",
						"credit"
					]
				}
			},
			"response": []
		},
		{
			"name": "transfer środków z konta na karte",
			"event": [
				{
					"listen": "test",
					"script": {
						"exec": [
							"pm.test(\"Czy poprawny kod\", function () {\r",
							"    pm.response.to.have.status(200);\r",
							"});\r",
							""
						],
						"type": "text/javascript"
					}
				}
			],
			"request": {
				"auth": {
					"type": "basic",
					"basic": [
						{
							"key": "password",
							"value": "{{hasloDlaFlow1}}",
							"type": "string"
						},
						{
							"key": "username",
							"value": "{{username1}}",
							"type": "string"
						}
					]
				},
				"method": "POST",
				"header": [],
				"body": {
					"mode": "raw",
					"raw": "{\r\n  \"amount\": 500,\r\n  \"csc\": 333\r\n}",
					"options": {
						"raw": {
							"language": "json"
						}
					}
				},
				"url": {
					"raw": "{{baseURL}}/user/account/debit",
					"host": [
						"{{baseURL}}"
					],
					"path": [
						"user",
						"account",
						"debit"
					]
				}
			},
			"response": []
		},
		{
			"name": "2 transfer środków z konta na karte",
			"event": [
				{
					"listen": "test",
					"script": {
						"exec": [
							"pm.test(\"Czy poprawny kod\", function () {\r",
							"    pm.response.to.have.status(200);\r",
							"});\r",
							""
						],
						"type": "text/javascript"
					}
				}
			],
			"request": {
				"auth": {
					"type": "basic",
					"basic": [
						{
							"key": "password",
							"value": "{{hasloDlaFlow2}}",
							"type": "string"
						},
						{
							"key": "username",
							"value": "{{username2}}",
							"type": "string"
						}
					]
				},
				"method": "POST",
				"header": [],
				"body": {
					"mode": "raw",
					"raw": "{\r\n  \"amount\": 5,\r\n  \"csc\": 716\r\n}",
					"options": {
						"raw": {
							"language": "json"
						}
					}
				},
				"url": {
					"raw": "{{baseURL}}/user/account/debit",
					"host": [
						"{{baseURL}}"
					],
					"path": [
						"user",
						"account",
						"debit"
					]
				}
			},
			"response": []
		},
		{
			"name": "przelew do innego uzytownika",
			"event": [
				{
					"listen": "test",
					"script": {
						"exec": [
							"pm.test(\"Czy poprawny kod\", function () {\r",
							"    pm.response.to.have.status(200);\r",
							"});\r",
							""
						],
						"type": "text/javascript"
					}
				}
			],
			"request": {
				"auth": {
					"type": "basic",
					"basic": [
						{
							"key": "password",
							"value": "{{hasloDlaFlow1}}",
							"type": "string"
						},
						{
							"key": "username",
							"value": "{{username1}}",
							"type": "string"
						}
					]
				},
				"method": "POST",
				"header": [],
				"body": {
					"mode": "raw",
					"raw": "{\n  \"amount\": 497,\n  \"creditorUsername\": \"{{username2}}\",\n  \"description\": \"przelew\"\n}",
					"options": {
						"raw": {
							"language": "json"
						}
					}
				},
				"url": {
					"raw": "{{baseURL}}/user/pay",
					"host": [
						"{{baseURL}}"
					],
					"path": [
						"user",
						"pay"
					]
				}
			},
			"response": []
		},
		{
			"name": "2 przelew do innego uzytkownika",
			"event": [
				{
					"listen": "test",
					"script": {
						"exec": [
							"pm.test(\"Czy poprawny kod\", function () {\r",
							"    pm.response.to.have.status(200);\r",
							"});\r",
							""
						],
						"type": "text/javascript"
					}
				}
			],
			"request": {
				"auth": {
					"type": "basic",
					"basic": [
						{
							"key": "password",
							"value": "{{hasloDlaFlow2}}",
							"type": "string"
						},
						{
							"key": "username",
							"value": "{{username2}}",
							"type": "string"
						}
					]
				},
				"method": "POST",
				"header": [],
				"body": {
					"mode": "raw",
					"raw": "{\n  \"amount\": 47,\n  \"creditorUsername\": \"{{username1}}\",\n  \"description\": \"przelew\"\n}",
					"options": {
						"raw": {
							"language": "json"
						}
					}
				},
				"url": {
					"raw": "{{baseURL}}/user/pay",
					"host": [
						"{{baseURL}}"
					],
					"path": [
						"user",
						"pay"
					]
				}
			},
			"response": []
		},
		{
			"name": "zawieszenie konta",
			"event": [
				{
					"listen": "test",
					"script": {
						"exec": [
							"pm.test(\"Czy poprawny kod\", function () {\r",
							"    pm.response.to.have.status(200);\r",
							"});\r",
							""
						],
						"type": "text/javascript"
					}
				}
			],
			"request": {
				"auth": {
					"type": "basic",
					"basic": [
						{
							"key": "password",
							"value": "{{hasloadmin}}",
							"type": "string"
						},
						{
							"key": "username",
							"value": "{{loginadmin}}",
							"type": "string"
						}
					]
				},
				"method": "POST",
				"header": [],
				"body": {
					"mode": "raw",
					"raw": "",
					"options": {
						"raw": {
							"language": "json"
						}
					}
				},
				"url": {
					"raw": "{{baseURL}}/admin/account/suspend/{{username1}}",
					"host": [
						"{{baseURL}}"
					],
					"path": [
						"admin",
						"account",
						"suspend",
						"{{username1}}"
					]
				}
			},
			"response": []
		},
		{
			"name": "pobieranie danych zawieszonego konta",
			"event": [
				{
					"listen": "test",
					"script": {
						"exec": [
							"pm.test(\"Czy poprawny kod\", function () {\r",
							"    pm.response.to.have.status(200);\r",
							"});\r",
							"\r",
							"\r",
							"\r",
							"pm.test(\"Czy jest poprawne\", function () {\r",
							"    pm.expect(pm.response.json().currency).to.be.eq(\"USD\");\r",
							"    pm.expect(pm.response.json().status).to.be.eq(\"SUSPENDED\");\r",
							"   \r",
							"});\r",
							""
						],
						"type": "text/javascript"
					}
				}
			],
			"protocolProfileBehavior": {
				"disableBodyPruning": true
			},
			"request": {
				"auth": {
					"type": "basic",
					"basic": [
						{
							"key": "password",
							"value": "{{hasloDlaFlow1}}",
							"type": "string"
						},
						{
							"key": "username",
							"value": "{{username1}}",
							"type": "string"
						}
					]
				},
				"method": "GET",
				"header": [],
				"body": {
					"mode": "raw",
					"raw": "",
					"options": {
						"raw": {
							"language": "json"
						}
					}
				},
				"url": {
					"raw": "{{baseURL}}/user/account",
					"host": [
						"{{baseURL}}"
					],
					"path": [
						"user",
						"account"
					]
				}
			},
			"response": []
		},
		{
			"name": "aktywacja konta",
			"event": [
				{
					"listen": "test",
					"script": {
						"exec": [
							"pm.test(\"Czy poprawny kod\", function () {\r",
							"    pm.response.to.have.status(200);\r",
							"});\r",
							"pm.test(\"Czy jest poprawne\", function () {\r",
							"    pm.expect(pm.response.json().currency).to.be.eq(\"USD\");\r",
							"    pm.expect(pm.response.json().status).to.be.eq(\"ACTIVE\");\r",
							"\r",
							"});"
						],
						"type": "text/javascript"
					}
				}
			],
			"request": {
				"auth": {
					"type": "basic",
					"basic": [
						{
							"key": "password",
							"value": "{{hasloadmin}}",
							"type": "string"
						},
						{
							"key": "username",
							"value": "{{loginadmin}}",
							"type": "string"
						}
					]
				},
				"method": "POST",
				"header": [],
				"body": {
					"mode": "raw",
					"raw": "",
					"options": {
						"raw": {
							"language": "json"
						}
					}
				},
				"url": {
					"raw": "{{baseURL}}/admin/account/activate/{{username1}}",
					"host": [
						"{{baseURL}}"
					],
					"path": [
						"admin",
						"account",
						"activate",
						"{{username1}}"
					]
				}
			},
			"response": []
		},
		{
			"name": "zmiana waluty",
			"event": [
				{
					"listen": "test",
					"script": {
						"exec": [
							"pm.test(\"Czy poprawny kod\", function () {\r",
							"    pm.response.to.have.status(200);\r",
							"});\r",
							""
						],
						"type": "text/javascript"
					}
				}
			],
			"request": {
				"auth": {
					"type": "basic",
					"basic": [
						{
							"key": "password",
							"value": "{{hasloDlaFlow2}}",
							"type": "string"
						},
						{
							"key": "username",
							"value": "{{username2}}",
							"type": "string"
						}
					]
				},
				"method": "POST",
				"header": [],
				"body": {
					"mode": "raw",
					"raw": "",
					"options": {
						"raw": {
							"language": "json"
						}
					}
				},
				"url": {
					"raw": "{{baseURL}}/user/account/convert/USD",
					"host": [
						"{{baseURL}}"
					],
					"path": [
						"user",
						"account",
						"convert",
						"USD"
					]
				}
			},
			"response": []
		},
		{
			"name": "2 pobieranie danych zmiana waluty",
			"event": [
				{
					"listen": "test",
					"script": {
						"exec": [
							"pm.test(\"Czy poprawny kod\", function () {\r",
							"    pm.response.to.have.status(200);\r",
							"});\r",
							"pm.test(\"Czy jest poprawne\", function () {\r",
							"    pm.expect(pm.response.json().number).to.be.eq(\"1234567887654321\");\r",
							"    pm.expect(pm.response.json().csc).to.be.eq(716);\r",
							"    pm.expect(pm.response.json().expirationDate).to.be.eq(\"2020-12-01\");\r",
							"    pm.expect(pm.response.json().currency).to.be.eq(\"USD\");\r",
							"});\r",
							""
						],
						"type": "text/javascript"
					}
				}
			],
			"protocolProfileBehavior": {
				"disableBodyPruning": true
			},
			"request": {
				"auth": {
					"type": "basic",
					"basic": [
						{
							"key": "password",
							"value": "{{hasloDlaFlow2}}",
							"type": "string"
						},
						{
							"key": "username",
							"value": "{{username2}}",
							"type": "string"
						}
					]
				},
				"method": "GET",
				"header": [],
				"body": {
					"mode": "raw",
					"raw": "",
					"options": {
						"raw": {
							"language": "json"
						}
					}
				},
				"url": {
					"raw": "{{baseURL}}/user/account/card",
					"host": [
						"{{baseURL}}"
					],
					"path": [
						"user",
						"account",
						"card"
					]
				}
			},
			"response": []
		},
		{
			"name": "zamykanie konta",
			"event": [
				{
					"listen": "test",
					"script": {
						"exec": [
							"pm.test(\"Czy poprawny kod\", function () {\r",
							"    pm.response.to.have.status(200);\r",
							"});\r",
							"pm.test(\"Czy balance = 0\", function () {\r",
							"   \r",
							"    pm.expect(pm.response.json().balance).to.be.eq(0.0);\r",
							"\r",
							"});\r",
							""
						],
						"type": "text/javascript"
					}
				}
			],
			"request": {
				"auth": {
					"type": "basic",
					"basic": [
						{
							"key": "password",
							"value": "{{hasloDlaFlow2}}",
							"type": "string"
						},
						{
							"key": "username",
							"value": "{{username2}}",
							"type": "string"
						}
					]
				},
				"method": "POST",
				"header": [],
				"body": {
					"mode": "raw",
					"raw": "",
					"options": {
						"raw": {
							"language": "json"
						}
					}
				},
				"url": {
					"raw": "{{baseURL}}/user/account/close",
					"host": [
						"{{baseURL}}"
					],
					"path": [
						"user",
						"account",
						"close"
					]
				}
			},
			"response": []
		},
		{
			"name": "potwierdzenie rejestracji zlym kodem",
			"event": [
				{
					"listen": "test",
					"script": {
						"exec": [
							"pm.test(\"Czy poprawny kod\", function () {\r",
							"    pm.response.to.have.status(404);\r",
							"});\r",
							""
						],
						"type": "text/javascript"
					}
				}
			],
			"request": {
				"auth": {
					"type": "basic",
					"basic": [
						{
							"key": "password",
							"value": "{{hasloadmin}}",
							"type": "string"
						},
						{
							"key": "username",
							"value": "{{loginadmin}}",
							"type": "string"
						}
					]
				},
				"method": "POST",
				"header": [],
				"body": {
					"mode": "raw",
					"raw": "",
					"options": {
						"raw": {
							"language": "json"
						}
					}
				},
				"url": {
					"raw": "{{baseURL}}/public/user/confirm/dde64580-333c-4bc0-ad19-93933c24e0ki",
					"host": [
						"{{baseURL}}"
					],
					"path": [
						"public",
						"user",
						"confirm",
						"dde64580-333c-4bc0-ad19-93933c24e0ki"
					]
				}
			},
			"response": []
		},
		{
			"name": "zawieszenie konta Copy",
			"event": [
				{
					"listen": "test",
					"script": {
						"exec": [
							"pm.test(\"Czy poprawny kod\", function () {\r",
							"    pm.response.to.have.status(200);\r",
							"});\r",
							"pm.test(\"Czy poprawny status\", function () {\r",
							"   \r",
							"    pm.expect(pm.response.json().status).to.be.eq(\"SUSPENDED\");\r",
							"\r",
							"});\r",
							""
						],
						"type": "text/javascript"
					}
				}
			],
			"request": {
				"auth": {
					"type": "basic",
					"basic": [
						{
							"key": "password",
							"value": "{{hasloadmin}}",
							"type": "string"
						},
						{
							"key": "username",
							"value": "{{loginadmin}}",
							"type": "string"
						}
					]
				},
				"method": "POST",
				"header": [],
				"body": {
					"mode": "raw",
					"raw": "",
					"options": {
						"raw": {
							"language": "json"
						}
					}
				},
				"url": {
					"raw": "{{baseURL}}/admin/account/suspend/{{username1}}",
					"host": [
						"{{baseURL}}"
					],
					"path": [
						"admin",
						"account",
						"suspend",
						"{{username1}}"
					]
				}
			},
			"response": []
		},
		{
			"name": "żądanie na koncie SUSPENDED",
			"event": [
				{
					"listen": "test",
					"script": {
						"exec": [
							"pm.test(\"Czy poprawny kod\", function () {\r",
							"    pm.response.to.have.status(400);\r",
							"});\r",
							""
						],
						"type": "text/javascript"
					}
				}
			],
			"request": {
				"auth": {
					"type": "basic",
					"basic": [
						{
							"key": "password",
							"value": "{{hasloDlaFlow1}}",
							"type": "string"
						},
						{
							"key": "username",
							"value": "{{username1}}",
							"type": "string"
						}
					]
				},
				"method": "POST",
				"header": [],
				"body": {
					"mode": "raw",
					"raw": "{\r\n  \"amount\": 4700,\r\n  \"csc\": 333\r\n}",
					"options": {
						"raw": {
							"language": "json"
						}
					}
				},
				"url": {
					"raw": "{{baseURL}}/user/account/credit",
					"host": [
						"{{baseURL}}"
					],
					"path": [
						"user",
						"account",
						"credit"
					]
				}
			},
			"response": []
		}
	],
	"event": [
		{
			"listen": "prerequest",
			"script": {
				"type": "text/javascript",
				"exec": [
					""
				]
			}
		},
		{
			"listen": "test",
			"script": {
				"type": "text/javascript",
				"exec": [
					""
				]
			}
		}
	],
	"variable": [
		{
			"key": "hasloDlaFlow1",
			"value": "password123"
		},
		{
			"key": "hasloDlaFlow2",
			"value": "password098"
		},
		{
			"key": "Code1",
			"value": ""
		},
		{
			"key": "firstname1",
			"value": ""
		},
		{
			"key": "lastname1",
			"value": ""
		},
		{
			"key": "username1",
			"value": ""
		},
		{
			"key": "Code2",
			"value": ""
		},
		{
			"key": "firstname2",
			"value": ""
		},
		{
			"key": "lastname2",
			"value": ""
		},
		{
			"key": "username2",
			"value": ""
		},
		{
			"key": "email1",
			"value": ""
		},
		{
			"key": "email2",
			"value": ""
		},
		{
			"key": "exchangeRate",
			"value": ""
		},
		{
			"key": "debitedAmount",
			"value": ""
		}
	]
}