{
	"info": {
		"_postman_id": "02221816-df69-4ae6-a401-e220eb3a5ec7",
		"name": "Pre-request",
		"schema": "https://schema.getpostman.com/json/collection/v2.1.0/collection.json"
	},
	"item": [
		{
			"name": "https://httpbin.org/get",
			"event": [
				{
					"listen": "prerequest",
					"script": {
						"exec": [
							"console.log(\"PreRequest pierwszy log\");\r",
							"\r",
							"console.info(\"PreRequest 2 LOG - INFO\");\r",
							"\r",
							"console.warn(\"PreRequest 3 LOG - warn\");\r",
							"\r",
							"consol.error(\"PreRequest 4 LOG - error\");"
						],
						"type": "text/javascript"
					}
				},
				{
					"listen": "test",
					"script": {
						"exec": [
							"console.log(\"Test pierwszy log\");\r",
							"\r",
							"console.info(\"Test  2 LOG - INFO\");\r",
							"\r",
							"console.warn(\"Test 3 LOG - warn\");\r",
							"\r",
							"consol.error(\"Test  4 LOG - error\");"
						],
						"type": "text/javascript"
					}
				}
			],
			"request": {
				"method": "GET",
				"header": [],
				"url": {
					"raw": "https://httpbin.org/get",
					"protocol": "https",
					"host": [
						"httpbin",
						"org"
					],
					"path": [
						"get"
					]
				}
			},
			"response": []
		},
		{
			"name": "preRequest",
			"event": [
				{
					"listen": "prerequest",
					"script": {
						"exec": [
							"var osoba = {\r",
							"    imie : \"Tomek\",\r",
							"    nazwisko : \"Kowalski\",\r",
							"    wiek : 30,\r",
							"    samochod : {marka: \"Toyota\", model: \"Auris\"},\r",
							"    dzieci : [\r",
							"        {\r",
							"            imie : \"Jacek\",\r",
							"            wiek : 5\r",
							"        },\r",
							"        {\r",
							"            imie : \"Ania\",\r",
							"            wiek : 3\r",
							"        }\r",
							"    ],\r",
							"    zwierzeta : [\"Azor\", \"Reksio\"]\r",
							"}\r",
							"\r",
							"console.log(\"Imię: \" + osoba.imie);\r",
							"console.log(\"Model samochodu: \" + osoba.samochod.model);\r",
							"console.log(\"Imię drugiego dziecka: \" + osoba.dzieci[1].imie);\r",
							"console.log(\"Imię pierwszego zwierzęcia: \" + osoba.zwierzeta[0]);"
						],
						"type": "text/javascript"
					}
				}
			],
			"request": {
				"method": "GET",
				"header": [],
				"url": {
					"raw": "https://httpbin.org/get",
					"protocol": "https",
					"host": [
						"httpbin",
						"org"
					],
					"path": [
						"get"
					]
				}
			},
			"response": []
		},
		{
			"name": "negacja **",
			"event": [
				{
					"listen": "prerequest",
					"script": {
						"exec": [
							"var x = 100;\r",
							"var y = 500;\r",
							"var z = \"200\";\r",
							"var liczby = [9, 10, 20, 30, 40, 50, 60, 70, 80, 90];\r",
							"var imie = [\"Paweł\", \"Michał\", \"Jan\"];\r",
							"var powitanie = [\"Hej\", \"CZeść\", \"Witaj\"];\r",
							"\r",
							"console.log(x + y);\r",
							"x = 2;\r",
							"y = 25;\r",
							"console.log(x * y);\r",
							"console.log(y + z);\r",
							"console.log(liczby[0], liczby[4], liczby[9]);\r",
							"console.log(liczby[10]);\r",
							"console.log(liczby[2] + liczby[6]);\r",
							"console.log(powitanie[0] + \" \" + imie[2]);\r",
							"\r",
							"\r",
							"console.log(1, x != liczby[2]);\r",
							"console.log(2, liczby[1] == liczby[7])\r",
							"console.log(3, liczby.length == imie.length);\r",
							"console.log(4, imie.length != powitanie.length);\r",
							"console.log(5, liczby[3] == liczby[5])\r",
							"var porownanieLiczb = liczby[3] == liczby[5];\r",
							"var negacja = !porownanieLiczb;\r",
							"console.log(6, negacja);\r",
							"\r",
							"console.log(7, x > y && z > y);\r",
							"\r",
							"var sprawdzenie = x > y && z > y;\r",
							"console.log(8, sprawdzenie);\r",
							"\r",
							"var negacja1 = !sprawdzenie;\r",
							"console.log(9, negacja1)\r",
							"var isFalse = negacja1 === false;\r",
							"console.log(10, isFalse);\r",
							""
						],
						"type": "text/javascript"
					}
				}
			],
			"request": {
				"method": "GET",
				"header": [],
				"url": {
					"raw": "https://httpbin.org/ge",
					"protocol": "https",
					"host": [
						"httpbin",
						"org"
					],
					"path": [
						"ge"
					]
				}
			},
			"response": []
		},
		{
			"name": "customer",
			"event": [
				{
					"listen": "prerequest",
					"script": {
						"exec": [
							" var customer = {\r",
							"    firstname : \"Jan\",\r",
							"    lastName : \"Kowalski\",\r",
							"    gender : \"M\",\r",
							"    card : {\r",
							"        code : \"XYZ\",\r",
							"        discount : 10,\r",
							"        valid : false\r",
							"    },\r",
							"    clothes : [\r",
							"        {\r",
							"        name : \"spodnie\",\r",
							"        size : \"L\",\r",
							"        manufacturer : {\r",
							"            name : \"PHF company\" ,\r",
							"             country : \"USD\"\r",
							"             }\r",
							"    },\r",
							"    {\r",
							"        name : \"podkoszulek\",\r",
							"        size : \"M\",\r",
							"        manufacturer : {\r",
							"            name : \"PHF company\" ,\r",
							"         country : \"USD\"\r",
							"         }\r",
							"    },\r",
							"    {\r",
							"        name : \"koszula\",\r",
							"        size : \"M\",\r",
							"        manufacturer : {\r",
							"            name : \"PHF company\" ,\r",
							"             country : \"USD\"\r",
							"             }\r",
							"    }\r",
							"    ]\r",
							" }\r",
							" console.log(\"Imię:\" + customer.firstname);"
						],
						"type": "text/javascript"
					}
				}
			],
			"request": {
				"method": "GET",
				"header": [],
				"url": {
					"raw": "https://httpbin.org/get",
					"protocol": "https",
					"host": [
						"httpbin",
						"org"
					],
					"path": [
						"get"
					]
				}
			},
			"response": []
		},
		{
			"name": "customer33",
			"event": [
				{
					"listen": "prerequest",
					"script": {
						"exec": [
							"var customer = {\r",
							"    firstname: \"Jan\",\r",
							"    lastname: \"Kowalski\",\r",
							"    gender: \"M\",\r",
							"    card: {\r",
							"        code: \"XYZ\",\r",
							"        discount: 10,\r",
							"        valid: true\r",
							"    },\r",
							"    clothes: [\r",
							"        {\r",
							"            name: \"spodnie\",\r",
							"            size: \"L\",\r",
							"            manufacturer: {\r",
							"                name: \"House\",\r",
							"                country: \"USA\"\r",
							"            }\r",
							"        },\r",
							"        {\r",
							"            name: \"podkoszulek\",\r",
							"            size: \"M\",\r",
							"            manufacturer: {\r",
							"                name: \"Cropp\",\r",
							"                country: \"Polska\"\r",
							"            }\r",
							"        },\r",
							"        {\r",
							"            name: \"koszula\",\r",
							"            size: \"S\",\r",
							"            manufacturer: {\r",
							"                name: \"Zara\",\r",
							"                country: \"Niemcy\"\r",
							"            }\r",
							"        }\r",
							"    ]\r",
							"};\r",
							"var customer2 = {\r",
							"    firstname: \"Tomasz\",\r",
							"    lastname: \"Niemiec\",\r",
							"    gender: \"M\",\r",
							"    card: {\r",
							"        code: \"KJA\",\r",
							"        discount: 20,\r",
							"        valid: true\r",
							"    },\r",
							"    clothes: [\r",
							"        {\r",
							"            name: \"kamizelka\",\r",
							"            size: \"M\",\r",
							"            manufacturer: {\r",
							"                name: \"Reserve\",\r",
							"                country: \"USA\"\r",
							"            }\r",
							"        },\r",
							"        {\r",
							"            name: \"spodnie\",\r",
							"            size: \"XL\",\r",
							"            manufacturer: {\r",
							"                name: \"Big Star\",\r",
							"                country: \"USA\"\r",
							"            }\r",
							"        },\r",
							"        {\r",
							"            name: \"szalik\",\r",
							"            size: \"M\",\r",
							"            manufacturer: {\r",
							"                name: \"H&M\",\r",
							"                country: \"USA\"\r",
							"            }\r",
							"        }\r",
							"    ]\r",
							"};\r",
							"var customer3 = {\r",
							"    firstname: \"Paweł\",\r",
							"    lastname: \"Nowak\",\r",
							"    gender: \"M\",\r",
							"    card: {\r",
							"        code: \"AVD\",\r",
							"        discount: 15,\r",
							"        valid: false\r",
							"    },\r",
							"    clothes: [\r",
							"        {\r",
							"            name: \"rękawiczki\",\r",
							"            size: \"L\",\r",
							"            manufacturer: {\r",
							"                name: \"Cropp\",\r",
							"                country: \"Francja\"\r",
							"            }\r",
							"        },\r",
							"        {\r",
							"            name: \"płaczsz\",\r",
							"            size: \"M\",\r",
							"            manufacturer: {\r",
							"                name: \"vistula\",\r",
							"                country: \"Austria\"\r",
							"            }\r",
							"        },\r",
							"        {\r",
							"            name: \"marynarka\",\r",
							"            size: \"XL\",\r",
							"            manufacturer: {\r",
							"                name: \"Hugo Boss\",\r",
							"                country: \"USA\"\r",
							"            }\r",
							"        }\r",
							"    ]\r",
							"};\r",
							"\r",
							"console.log(\"Nazwisko:\" + customer.lastname);\r",
							"console.log(\"Płęć:\" + customer.gender);\r",
							"console.log(\"Nazwisko:\" + customer.lastname,\"Płęć:\" + customer.gender);\r",
							"console.log(\"zniżka\" +\" \"+ customer.card.discount);\r",
							"console.log(\"Rozmiar urania\" +\" \"+ customer.clothes[1].size +\" \"+ customer.clothes[2].size);\r",
							"console.log(\"Kraj pochodzenia\" +\" \"+ customer.clothes[0].manufacturer.country);\r",
							"console.log(\"Kraj pochodzenia\" +\" \"+ customer.clothes[2].manufacturer.country);\r",
							"\r",
							"var customer2 = {\r",
							"    firstname: \"Tomasz\",\r",
							"    lastname: \"Niemiec\",\r",
							"    gender: \"M\",\r",
							"    card: {\r",
							"        code: \"KJA\",\r",
							"        discount: 20,\r",
							"        valid: true\r",
							"    },\r",
							"    clothes: [\r",
							"        {\r",
							"            name: \"kamizelka\",\r",
							"            size: \"M\",\r",
							"            manufacturer: {\r",
							"                name: \"Reserve\",\r",
							"                country: \"USA\"\r",
							"            }\r",
							"        },\r",
							"        {\r",
							"            name: \"spodnie\",\r",
							"            size: \"XL\",\r",
							"            manufacturer: {\r",
							"                name: \"Big Star\",\r",
							"                country: \"USA\"\r",
							"            }\r",
							"        },\r",
							"        {\r",
							"            name: \"szalik\",\r",
							"            size: \"M\",\r",
							"            manufacturer: {\r",
							"                name: \"H&M\",\r",
							"                country: \"USA\"\r",
							"            }\r",
							"        }\r",
							"    ]\r",
							"};\r",
							"var customer3 = {\r",
							"    firstname: \"Paweł\",\r",
							"    lastname: \"Nowak\",\r",
							"    gender: \"M\",\r",
							"    card: {\r",
							"        code: \"AVD\",\r",
							"        discount: 15,\r",
							"        valid: false\r",
							"    },\r",
							"    clothes: [\r",
							"        {\r",
							"            name: \"rękawiczki\",\r",
							"            size: \"L\",\r",
							"            manufacturer: {\r",
							"                name: \"Cropp\",\r",
							"                country: \"Francja\"\r",
							"            }\r",
							"        },\r",
							"        {\r",
							"            name: \"płaczsz\",\r",
							"            size: \"M\",\r",
							"            manufacturer: {\r",
							"                name: \"vistula\",\r",
							"                country: \"Austria\"\r",
							"            }\r",
							"        },\r",
							"        {\r",
							"            name: \"marynarka\",\r",
							"            size: \"XL\",\r",
							"            manufacturer: {\r",
							"                name: \"Hugo Boss\",\r",
							"                country: \"USA\"\r",
							"            }\r",
							"        }\r",
							"    ]\r",
							"};\r",
							"console.log(customer);\r",
							"console.log(customer2);\r",
							"console.log(customer3);\r",
							"\r",
							"console.log(customer.clothes[1].size == customer3.clothes[1].size);\r",
							"console.log(customer.card.discount > customer2.card.discoun);\r",
							"\r",
							"console.log(1,customer.card.valid && customer2.card.valid && customer3.card.valid);\r",
							"\r",
							"\r",
							""
						],
						"type": "text/javascript"
					}
				}
			],
			"request": {
				"method": "GET",
				"header": [],
				"url": {
					"raw": "https://httpbin.org/get",
					"protocol": "https",
					"host": [
						"httpbin",
						"org"
					],
					"path": [
						"get"
					]
				}
			},
			"response": []
		},
		{
			"name": "customer 1",
			"event": [
				{
					"listen": "prerequest",
					"script": {
						"exec": [
							"var customer1 = {\r",
							"     first_name : \"Tomasz\",\r",
							"     last_name : \"Kowalski\",\r",
							"     gender : \"M\",\r",
							"     card : {\r",
							"        code : \"CARD001\",\r",
							"        discount : 15,\r",
							"        valid : true\r",
							"    },\r",
							"    ubrania : [\r",
							"        {\r",
							"            name : \"spódnica\",\r",
							"            size : 38,\r",
							"            manufacturer : {\r",
							"                name : \"h & m\",\r",
							"                country : \"Poland\"\r",
							"            }\r",
							"        },\r",
							"        {\r",
							"            name : \"sukienka\",\r",
							"            size : 39,\r",
							"            manufacturer : {\r",
							"                name : \"zara\",\r",
							"                country : \"Poland\"\r",
							"            }\r",
							"        },\r",
							"        {\r",
							"            name : \"spodnie\",\r",
							"                size : 40,\r",
							"                manufacturer : {\r",
							"                    name : \"pepco\",\r",
							"                    country : \"Poland\"\r",
							"            }\r",
							"        }\r",
							"    ]\r",
							"};\r",
							"var customer2 = {\r",
							"    first_name : \"Wojciech\",\r",
							"    last_name : \"Nowak\",\r",
							"    gender : \"M\",\r",
							"    card : {\r",
							"        code : \"CARD002\",\r",
							"        discount : 20,\r",
							"        valid : true\r",
							"    },\r",
							"    ubrania : [\r",
							"        {\r",
							"            name : \"spodnie\",\r",
							"            size : 40,\r",
							"            manufacturer : {\r",
							"                name : \"marco&polo\",\r",
							"                country : \"usa\"\r",
							"            }\r",
							"        },\r",
							"        {\r",
							"            name : \"koszula\",\r",
							"            size : 42,\r",
							"            manufacturer : {\r",
							"                name : \"zara\",\r",
							"                country : \"germany\"\r",
							"            }\r",
							"        },\r",
							"        {\r",
							"            name : \"krawat\",\r",
							"                size : 40,\r",
							"                manufacturer : {\r",
							"                    name : \"venti\",\r",
							"                    country : \"Poland\"\r",
							"            }\r",
							"        }\r",
							"    ]\r",
							"};\r",
							"var customer3 = {\r",
							"    first_name : \"Klaudia\",\r",
							"    last_name : \"Ibisz\",\r",
							"    gender : \"K\",\r",
							"    card : {\r",
							"        code : \"CARD003\",\r",
							"        discount : 25,\r",
							"        valid : false\r",
							"    },\r",
							"    ubrania : [\r",
							"        {\r",
							"            name : \"żakiet\",\r",
							"            size : 38,\r",
							"            manufacturer : {\r",
							"                name : \"h & m\",\r",
							"                country : \"usa\"\r",
							"            }\r",
							"        },\r",
							"        {\r",
							"            name : \"sukienka\",\r",
							"            size : 37,\r",
							"            manufacturer : {\r",
							"                name : \"cropp\",\r",
							"                country : \"hungary\"\r",
							"            }\r",
							"        },\r",
							"        {\r",
							"            name : \"spodnie\",\r",
							"                size : 40,\r",
							"                manufacturer : {\r",
							"                    name : \"zara\",\r",
							"                    country : \"france\"\r",
							"            }\r",
							"        }\r",
							"    ]\r",
							"};\r",
							"var tablica = [customer1, customer2, customer3];\r",
							"console.log(customer1.ubrania[1].size == customer3.ubrania[1].size);\r",
							"console.log(customer1.discount > customer2.discount);"
						],
						"type": "text/javascript"
					}
				}
			],
			"request": {
				"method": "GET",
				"header": [],
				"url": {
					"raw": "https://httpbin.org/get",
					"protocol": "https",
					"host": [
						"httpbin",
						"org"
					],
					"path": [
						"get"
					]
				}
			},
			"response": []
		},
		{
			"name": "function",
			"event": [
				{
					"listen": "prerequest",
					"script": {
						"exec": [
							"function wypisz() {\r",
							"   console.log();\r",
							"}\r",
							"wypisz(\"funkcja wykonana\");\r",
							"\r",
							"function wypisz (liczba) {\r",
							"    console.log(liczba);\r",
							"}\r",
							"\r",
							"wypisz(100);\r",
							"\r",
							"function zwroc() {\r",
							"    return 5;\r",
							"}\r",
							"zwroc();\r",
							"\r",
							"function zwroc(liczba) {\r",
							"return liczba\r",
							"};\r",
							"\r",
							"\r",
							"function przemnoz(parametr1, parametr2) {\r",
							"    var wynik = parametr1 * parametr2;\r",
							"    return wynik;\r",
							"}\r",
							"\r",
							"function dlugosc(tablica) {\r",
							"     return tablica.lenght;\r",
							"}\r",
							"var mojaTablica = [1,1,1]\r",
							"var dlugosc = (mojaTablica);\r",
							"console.log(dlugosc);\r",
							"\r",
							"\r",
							"function ostatniElement(tablica) {\r",
							" return tablica[tablica.lenght-1];\r",
							"}\r",
							"var tablica = [17,26,36];\r",
							"var ostatniElement = ostatniElement(tablica);\r",
							"console.log(ostatniElement);\r",
							"\r",
							""
						],
						"type": "text/javascript"
					}
				}
			],
			"request": {
				"method": "GET",
				"header": [],
				"url": {
					"raw": "https://httpbin.org/get",
					"protocol": "https",
					"host": [
						"httpbin",
						"org"
					],
					"path": [
						"get"
					]
				}
			},
			"response": []
		}
	]
}